{
  "response": {
    "id": "p08",
    "title": "Meeting Room P08",
    "organization": "Pepsi",
    "image_url": "p08-meeting-room.jpg",
    "state": "not_available",
    "seats": 3,
    "options": {
      "conf_call": "disable",
      "tv_projector": "disable",
      "water_fountain": "ooservice",
      "coffee_machin": "disable",
      "air_conditioned": "enable",
      "whiteboard": "disable"
    }
  }
}
