{
  "response": {
    "id": "c01",
    "title": "Meeting Room C01",
    "organization": "Coca Cola",
    "image_url": "c01-meeting-room.jpg",
    "state": "limited_timeslots",
    "seats": 8,
    "options": {
      "conf_call": "disable",
      "tv_projector": "ooservice",
      "water_fountain": "enable",
      "coffee_machin": "disable",
      "air_conditioned": "enable",
      "whiteboard": "enable"
    }
  }
}
