{
  "response": {
    "id": "c06",
    "title": "Meeting Room C06",
    "organization": "Coca Cola",
    "image_url": "c06-meeting-room.jpg",
    "state": "not_available",
    "seats": 6,
    "options": {
      "conf_call": "disable",
      "tv_projector": "disable",
      "water_fountain": "disable",
      "coffee_machin": "disable",
      "air_conditioned": "enable",
      "whiteboard": "enable"
    }
  }
}
