{
  "response": [
    {
      "is_booked": true,
      "user_id": null,
      "room_id": "c05",
      "meridiem": "am",
      "hour_start": 8,
      "hour_stop": 9
    },
    {
      "is_booked": true,
      "user_id": null,
      "room_id": "c05",
      "meridiem": "am",
      "hour_start": 9,
      "hour_stop": 10
    },
    {
      "is_booked": true,
      "user_id": null,
      "room_id": "c05",
      "meridiem": "am",
      "hour_start": 10,
      "hour_stop": 11
    },
    {
      "is_booked": true,
      "user_id": null,
      "room_id": "c05",
      "meridiem": "am",
      "hour_start": 11,
      "hour_stop": 12
    },
    {
      "is_booked": true,
      "user_id": null,
      "room_id": "c05",
      "meridiem": "am",
      "hour_start": 12,
      "hour_stop": 1
    },
    {
      "is_booked": true,
      "user_id": null,
      "room_id": "c05",
      "meridiem": "pm",
      "hour_start": 1,
      "hour_stop": 2
    },
    {
      "is_booked": true,
      "user_id": null,
      "room_id": "c05",
      "meridiem": "pm",
      "hour_start": 2,
      "hour_stop": 3
    },
    {
      "is_booked": true,
      "user_id": null,
      "room_id": "c05",
      "meridiem": "pm",
      "hour_start": 3,
      "hour_stop": 4
    },
    {
      "is_booked": true,
      "user_id": null,
      "room_id": "c05",
      "meridiem": "pm",
      "hour_start": 4,
      "hour_stop": 5
    },
    {
      "is_booked": true,
      "user_id": null,
      "room_id": "c05",
      "meridiem": "pm",
      "hour_start": 5,
      "hour_stop": 6
    }
  ]
}
